…
这个函数就是挑出数据集的不重复行，也就是删去重复行。目前我用的倒是比较少。

```R
> flights %>% distinct() %>% dim()
[1] 336776     19
> dim(flights)
[1] 336776     19
```

不过这个数据集本身也没有完全一样的记录。

```R
flights |> 
  distinct(origin, dest)
#> # A tibble: 224 × 2
#>   origin dest 
#>   <chr>  <chr>
#> 1 EWR    IAH  
#> 2 LGA    IAH  
#> 3 JFK    MIA  
#> 4 JFK    BQN  
#> 5 LGA    ATL  
#> 6 EWR    ORD  
#> # ℹ 218 more rows
```

这个倒是稍微常见一点哦。也算是扫盲了这个函数。

```R
flights |> 
  distinct(origin, dest, .keep_all = TRUE)
#> # A tibble: 224 × 19
#>    year month   day dep_time sched_dep_time dep_delay arr_time sched_arr_time
#>   <int> <int> <int>    <int>          <int>     <dbl>    <int>          <int>
#> 1  2013     1     1      517            515         2      830            819
#> 2  2013     1     1      533            529         4      850            830
#> 3  2013     1     1      542            540         2      923            850
#> 4  2013     1     1      544            545        -1     1004           1022
#> 5  2013     1     1      554            600        -6      812            837
#> 6  2013     1     1      554            558        -4      740            728
#> # ℹ 218 more rows
#> # ℹ 11 more variables: arr_delay <dbl>, carrier <chr>, flight <int>, …
```

如果加上了 `.keep_all = T`这样的参数就会保留的要求变量组合的第一个记录，同时删去剩下的。

总感觉还是一个去重和探索性质的函数啊。

到这里我就记不住了。因为还有更好用的用法。

```R
flights |>
  count(origin, dest, sort = TRUE)
#> # A tibble: 224 × 3
#>   origin dest      n
#>   <chr>  <chr> <int>
#> 1 JFK    LAX   11262
#> 2 LGA    ATL   10263
#> 3 LGA    ORD    8857
#> 4 JFK    SFO    8204
#> 5 LGA    CLT    6168
#> 6 EWR    ORD    6100
#> # ℹ 218 more rows
```
…
> Sort `flights` to find the fastest flights. (Hint: Try including a math calculation inside of your function.)

```R
flights %>% arrange(air_time)
```

这个涉及进制的计算还是比较麻烦的吧，至少我现在还没有转换为时间信息就转换不来啊。

> Was there a flight on every day of 2013?

这个就比较复杂的问题了。我是这么解答的。

```R
flights %>% distinct(year,month,day,tailnum) %>% count(tailnum,sort = T)
# A tibble: 4,044 × 2
   tailnum     n
   <chr>   <int>
 1 N328AA    336
 2 N338AA    334
 3 N327AA    323
 4 N335AA    322
 5 NA        316
 6 N323AA    305
 7 N336AA    304
 8 N329AA    300
 9 N319AA    296
10 N339AA    286
# ℹ 4,034 more rows
# ℹ Use `print(n = ...)` to see more rows
```
…
还能指定变量哦，哎哟不错哦。

```R
flights |> 
  mutate(
    gain = dep_delay - arr_delay,
    hours = air_time / 60,
    gain_per_hour = gain / hours,
    .keep = "used"
  )
# A tibble: 336,776 × 6
   dep_delay arr_delay air_time  gain hours gain_per_hour
       <dbl>     <dbl>    <dbl> <dbl> <dbl>         <dbl>
 1         2        11      227    -9 3.78          -2.38
 2         4        20      227   -16 3.78          -4.23
 3         2        33      160   -31 2.67         -11.6 
 4        -1       -18      183    17 3.05           5.57
 5        -6       -25      116    19 1.93           9.83
 6        -4        12      150   -16 2.5           -6.4 
 7        -5        19      158   -24 2.63          -9.11
 8        -3       -14       53    11 0.883         12.5 
 9        -3        -8      140     5 2.33           2.14
10        -2         8      138   -10 2.3           -4.35
# ℹ 336,766 more rows
# ℹ Use `print(n = ...)` to see more rows
```
…
## 练习

> Compare `dep_time`, `sched_dep_time`, and `dep_delay`. How would you expect those three numbers to be related?

```R
flights %>% 
  select(dep_time,sched_dep_time,dep_delay) %>% 
  mutate(dep_delay2 = dep_time - sched_dep_time)
# A tibble: 336,776 × 4
   dep_time sched_dep_time dep_delay dep_delay2
      <int>          <int>     <dbl>      <int>
 1      517            515         2          2
 2      533            529         4          4
 3      542            540         2          2
 4      544            545        -1         -1
 5      554            600        -6        -46
 6      554            558        -4         -4
 7      555            600        -5        -45
 8      557            600        -3        -43
 9      557            600        -3        -43
10      558            600        -2        -42
# ℹ 336,766 more rows
# ℹ Use `print(n = ...)` to see more rows
```

但是不知道为什么是匹配不了的。。。。。

> Brainstorm as many ways as possible to select `dep_time`, `dep_delay`, `arr_time`, and `arr_delay` from `flights`.

这个就算了吧，咱们就不玩花活了。

```R
> flights %>% 
+   select(contains('_') & !starts_with('sched') & !starts_with('time'))
# A tibble: 336,776 × 5
   dep_time dep_delay arr_time arr_delay air_time
      <int>     <dbl>    <int>     <dbl>    <dbl>
 1      517         2      830        11      227
 2      533         4      850        20      227
 3      542         2      923        33      160
 4      544        -1     1004       -18      183
 5      554        -6      812       -25      116
 6      554        -4      740        12      150
 7      555        -5      913        19      158
 8      557        -3      709       -14       53
 9      557        -3      838        -8      140
10      558        -2      753         8      138
# ℹ 336,766 more rows
# ℹ Use `print(n = ...)` to see more rows
```
…
```R
> flights |> 
+   select(tailnum) %>% 
+   arrange(arr_delay)
# A tibble: 336,776 × 1
   tailnum
   <chr>  
 1 N843VA 
 2 N840VA 
 3 N851UA 
 4 N3KCAA 
 5 N551AS 
 6 N24212 
 7 N3760C 
 8 N806UA 
 9 N805JB 
10 N855VA 
# ℹ 336,766 more rows
# ℹ Use `print(n = ...)` to see more rows
```

那为啥我没有报错，现在越来越离谱了。这的确不严谨，但是好用。

```R
flights |> 
  select(tailnum,arr_delay) %>% 
  arrange(arr_delay)
  # A tibble: 336,776 × 2
   tailnum arr_delay
   <chr>       <dbl>
 1 N843VA        -86
 2 N840VA        -79
 3 N851UA        -75
 4 N3KCAA        -75
 5 N551AS        -74
 6 N24212        -73
 7 N3760C        -71
 8 N806UA        -71
 9 N805JB        -71
10 N855VA        -70
# ℹ 336,766 more rows
# ℹ Use `print(n = ...)` to see more rows
```
…
> When you summarize a tibble grouped by more than one variable, each summary peels off the last group. In hindsight, this wasn’t a great way to make this function work, but it’s difficult to change without breaking existing code. To make it obvious what’s happening, dplyr displays a message that tells you how you can change this behavior:

不知道什么意思。待会儿再看看吧，有没有可能会是解除group的时候会出来呢？

```R
daily <- flights |>  
  group_by(year, month, day)
#> `summarise()` has grouped output by 'year', 'month'. You can override using
#> the `.groups` argument.
daily_flights <- daily |> 
  summarize(n = n())
```

```R
# A tibble: 365 × 4
# Groups:   year, month [12]
    year month   day     n
   <int> <int> <int> <int>
 1  2013     1     1   842
 2  2013     1     2   943
 3  2013     1     3   914
 4  2013     1     4   915
 5  2013     1     5   720
 6  2013     1     6   832
 7  2013     1     7   933
 8  2013     1     8   899
 9  2013     1     9   902
10  2013     1    10   932
# ℹ 355 more rows
# ℹ Use `print(n = ...)` to see more rows
```
…
