…
`str_length()`计算字符串（向量中的元素也可以）的长度

```R
babynames %>%
  count(length = str_length(name),wt = n)
```

这是个高度浓缩的写法，mutate一个新的列计算名字的长度，然后统计不同长度名字的数量，因为每个名字还有同名的权重，那么这样就符合了。

```R
babynames |> 
  filter(str_length(name) == 15) |> 
  count(name, wt = n, sort = TRUE)
#> # A tibble: 34 × 2
#>   name                n
#>   <chr>           <int>
#> 1 Franciscojavier   123
#> 2 Christopherjohn   118
#> 3 Johnchristopher   118
#> 4 Christopherjame   108
#> 5 Christophermich    52
#> 6 Ryanchristopher    45
#> # ℹ 28 more rows
```
…
