…
结合一下tidyverse的管道，计算每种名字的元音和辅音数。

```R
babynames |> 
  count(name) |> 
  mutate(
    vowels = str_count(name, "[aeiou]"),
    consonants = str_count(name, "[^aeiou]")
  )
#> # A tibble: 97,310 × 4
#>   name          n vowels consonants
#>   <chr>     <int>  <int>      <int>
#> 1 Aaban        10      2          3
#> 2 Aabha         5      2          3
#> 3 Aabid         2      2          3
#> 4 Aabir         1      2          3
#> 5 Aabriella     5      4          5
#> 6 Aada          1      2          2
#> # ℹ 97,304 more rows
```
…
```R
df |> 
  separate_wider_regex(
    str,
    patterns = c(
      "<", 
      name = "[A-Za-z]+", 
      ">-", 
      gender = ".",
      "_",
      age = "[0-9]+"
    )
  )
#> # A tibble: 7 × 3
#>   name    gender age  
#>   <chr>   <chr>  <chr>
#> 1 Sheryl  F      34   
#> 2 Kisha   F      45   
#> 3 Brandon N      33   
#> 4 Sharon  F      38   
#> 5 Penny   F      58   
#> 6 Justin  M      41   
#> # ℹ 1 more row
```
…
看看那作者改换成tibble的示例

```R
sentences |> 
  str_match("the (\\w+) (\\w+)") |> 
  as_tibble(.name_repair = "minimal") |> 
  set_names("match", "word1", "word2")
#> # A tibble: 720 × 3
#>   match             word1  word2 
#>   <chr>             <chr>  <chr> 
#> 1 the smooth planks smooth planks
#> 2 the sheet to      sheet  to    
#> 3 the depth of      depth  of    
#> 4 <NA>              <NA>   <NA>  
#> 5 <NA>              <NA>   <NA>  
#> 6 <NA>              <NA>   <NA>  
#> # ℹ 714 more rows
```
…
