…
`pivot_longer`才有这个去除缺失值的函数，不去除，两个缺失值都会展现。

## Complete函数

`complete()`可以把提供的两个分类变量中现有的元素进行组合，然后就能补上缺失的组合了。

```R
stocks |>
  complete(year, qtr)
#> # A tibble: 8 × 3
#>    year   qtr price
#>   <dbl> <dbl> <dbl>
#> 1  2020     1  1.88
#> 2  2020     2  0.59
#> 3  2020     3  0.35
#> 4  2020     4 NA   
#> 5  2021     1 NA   
#> 6  2021     2  0.92
#> # ℹ 2 more rows
```

这就比较方便了，不需要长款数据来回转换。

如果本身有的变量就不完整，complete里面也能对变量内容进行修改。

```R
stocks |>
  complete(year = 2019:2021, qtr)
#> # A tibble: 12 × 3
#>    year   qtr price
#>   <dbl> <dbl> <dbl>
#> 1  2019     1 NA   
#> 2  2019     2 NA   
#> 3  2019     3 NA   
#> 4  2019     4 NA   
#> 5  2020     1  1.88
#> 6  2020     2  0.59
#> # ℹ 6 more rows
```
…
flights |> 
  distinct(tailnum) |> 
  anti_join(planes)
#> Joining with `by = join_by(tailnum)`
#> # A tibble: 722 × 1
#>   tailnum
#>   <chr>  
#> 1 N3ALAA 
#> 2 N3DUAA 
#> 3 N542MQ 
#> 4 N730MQ 
#> 5 N9EAMQ 
#> 6 N532UA 
#> # ℹ 716 more rows
```
…
