…
## 读取工作表

电子表格和csv这种普通表格的一个区别就是可以由很多个工作表组成（是立体的）

再来下载一下https://docs.google.com/spreadsheets/d/1aFu8lnD_g0yjF5O-K6SFgSEWiHPpgvFCF0NY9D6LXnY/

![A look at the deaths spreadsheet in Excel. The spreadsheet has four rows on top that contain non-data information; the text 'For the same of consistency in the data layout, which is really a beautiful thing, I will keep making notes up here.' is spread across cells in these top four rows. Then, there is a data frame that includes information on deaths of 10 famous people, including their names, professions, ages, whether they have kids or not, date of birth and death. At the bottom, there are four more rows of non-data information; the text 'This has been really fun, but we're signing off now!' is spread across cells in these bottom four rows.](./0520 电子表格spreadsheet.assets/import-spreadsheets-deaths.png)

这个好像就是之前的ggplot初识的企鹅数据哦，只不过把三个岛屿分到了三个工作表当中。

如果不设置的话，默认都是第一张工作表。写不写，写工作表名，写编号都是一样的。

```R
read_excel("data/penguins.xlsx", sheet = "Torgersen Island")
#> # A tibble: 52 × 8
#>   species island    bill_length_mm     bill_depth_mm      flipper_length_mm
#>   <chr>   <chr>     <chr>              <chr>              <chr>            
#> 1 Adelie  Torgersen 39.1               18.7               181              
#> 2 Adelie  Torgersen 39.5               17.399999999999999 186              
#> 3 Adelie  Torgersen 40.299999999999997 18                 195              
#> 4 Adelie  Torgersen NA                 NA                 NA               
#> 5 Adelie  Torgersen 36.700000000000003 19.3               193              
#> 6 Adelie  Torgersen 39.299999999999997 20.6               190              
#> # ℹ 46 more rows
#> # ℹ 3 more variables: body_mass_g <chr>, sex <chr>, year <dbl>
```

我这里好像看不出来，据说NA不会被识别为NA，可以是字符串“NA”。

```R
penguins_torgersen <- read_excel("data/penguins.xlsx", sheet = "Torgersen Island", na = "NA")

penguins_torgersen
#> # A tibble: 52 × 8
#>   species island    bill_length_mm bill_depth_mm flipper_length_mm
#>   <chr>   <chr>              <dbl>         <dbl>             <dbl>
#> 1 Adelie  Torgersen           39.1          18.7               181
#> 2 Adelie  Torgersen           39.5          17.4               186
#> 3 Adelie  Torgersen           40.3          18                 195
#> 4 Adelie  Torgersen           NA            NA                  NA
#> 5 Adelie  Torgersen           36.7          19.3               193
#> 6 Adelie  Torgersen           39.3          20.6               190
#> # ℹ 46 more rows
#> # ℹ 3 more variables: body_mass_g <dbl>, sex <chr>, year <dbl>
```
…
```R
dim(penguins_torgersen)
#> [1] 52  8
dim(penguins_biscoe)
#> [1] 168   8
dim(penguins_dream)
#> [1] 124   8
```

这似乎还是这本书第一次出现这个函数`dim()`，也是非常常用的看矩阵维度的。可以看到，这三个工作表列的数量是一样的，只是记录数不一样。（我们都知道这些数据是哪里来的）那恢复成原本第一个表格，也就是行合并的操作。在dplyr里面是`bind_rows()`函数。

```R
penguins <- bind_rows(penguins_torgersen, penguins_biscoe, penguins_dream)
penguins
#> # A tibble: 344 × 8
#>   species island    bill_length_mm bill_depth_mm flipper_length_mm
#>   <chr>   <chr>              <dbl>         <dbl>             <dbl>
#> 1 Adelie  Torgersen           39.1          18.7               181
#> 2 Adelie  Torgersen           39.5          17.4               186
#> 3 Adelie  Torgersen           40.3          18                 195
#> 4 Adelie  Torgersen           NA            NA                  NA
#> 5 Adelie  Torgersen           36.7          19.3               193
#> 6 Adelie  Torgersen           39.3          20.6               190
#> # ℹ 338 more rows
#> # ℹ 3 more variables: body_mass_g <dbl>, sex <chr>, year <dbl>
```
…
因为很多电子表格为了方便自己处理，很多操作都在一张表上，实际有意义的表格，可能还是在表的一部分。

![A look at the deaths spreadsheet in Excel. The spreadsheet has four rows on top that contain non-data information; the text 'For the same of consistency in the data layout, which is really a beautiful thing, I will keep making notes up here.' is spread across cells in these top four rows. Then, there is a data frame that includes information on deaths of 10 famous people, including their names, professions, ages, whether they have kids or not, date of birth and death. At the bottom, there are four more rows of non-data information; the text 'This has been really fun, but we're signing off now!' is spread across cells in these bottom four rows.](./0520 电子表格spreadsheet.assets/import-spreadsheets-deaths-1726123994398-3.png)这里用的就是一个内置的实例数据了。

```R
deaths_path <- readxl_example("deaths.xlsx")
deaths <- read_excel(deaths_path)
#> New names:
#> • `` -> `...2`
#> • `` -> `...3`
#> • `` -> `...4`
#> • `` -> `...5`
#> • `` -> `...6`
deaths
#> # A tibble: 18 × 6
#>   `Lots of people`    ...2       ...3  ...4     ...5          ...6           
#>   <chr>               <chr>      <chr> <chr>    <chr>         <chr>          
#> 1 simply cannot resi… <NA>       <NA>  <NA>     <NA>          some notes     
#> 2 at                  the        top   <NA>     of            their spreadsh…
#> 3 or                  merging    <NA>  <NA>     <NA>          cells          
#> 4 Name                Profession Age   Has kids Date of birth Date of death  
#> 5 David Bowie         musician   69    TRUE     17175         42379          
#> 6 Carrie Fisher       actor      60    TRUE     20749         42731          
#> # ℹ 12 more rows
```

可以看到多了很多的NA，因为前面4行和后面4行是故意的，没有数据的。

可以用`skip`和`n_max`这样的参数进行提出。但是也可以像Excel一样，通过单元格的坐标进行框选。那么用的就是`range`参数（后面跟的是字符串）。

```R
read_excel(deaths_path, range = "A5:F15")
#> # A tibble: 10 × 6
#>   Name          Profession   Age `Has kids` `Date of birth`    
#>   <chr>         <chr>      <dbl> <lgl>      <dttm>             
#> 1 David Bowie   musician      69 TRUE       1947-01-08 00:00:00
#> 2 Carrie Fisher actor         60 TRUE       1956-10-21 00:00:00
#> 3 Chuck Berry   musician      90 TRUE       1926-10-18 00:00:00
#> 4 Bill Paxton   actor         61 TRUE       1955-05-17 00:00:00
#> 5 Prince        musician      57 TRUE       1958-06-07 00:00:00
#> 6 Alan Rickman  actor         69 FALSE      1946-02-21 00:00:00
#> # ℹ 4 more rows
#> # ℹ 1 more variable: `Date of death` <dttm>
```
…
