…
并且已经可以开始用dplyr操作数据了。再复习一下`collect`可以将结果输出变为tibble格式强制计算和返回了。

```R
seattle_csv |> 
  group_by(CheckoutYear) |> 
  summarise(Checkouts = sum(Checkouts)) |> 
  arrange(CheckoutYear) |> 
  collect()
#> # A tibble: 18 × 2
#>   CheckoutYear Checkouts
#>          <int>     <int>
#> 1         2005   3798685
#> 2         2006   6599318
#> 3         2007   7126627
#> 4         2008   8438486
#> 5         2009   9135167
#> 6         2010   8608966
#> # ℹ 12 more rows
```
…
```R
pq_path <- "data/seattle-library-checkouts"
seattle_csv |>
  group_by(CheckoutYear) |>
  write_dataset(path = pq_path, format = "parquet")
```

这个改写的过程也是花了一些些的时间，但是作者说这个时间的重写是很值得，这会为咱们后面提高效率。其实用法和write_csv差不多，但是这里输入的竟然是带有分组信息的tibble数据。然后这个路径原本是不存在的，既然没有，也可以新建一个。看看在这个新的文件夹里面都保存了什么。我看了竟然是新的文件夹里包括了18个新小的文件夹，每个文件夹里面有一个parquet文件。（估计要是一个parquet描述不了一年的话，可能这个小文件夹里还会有更多的parquet，就不只是part-0了。

```R
tibble(
  files = list.files(pq_path, recursive = TRUE),
  size_MB = file.size(file.path(pq_path, files)) / 1024^2
)
#> # A tibble: 18 × 2
#>   files                            size_MB
#>   <chr>                              <dbl>
#> 1 CheckoutYear=2005/part-0.parquet    109.
#> 2 CheckoutYear=2006/part-0.parquet    164.
#> 3 CheckoutYear=2007/part-0.parquet    178.
#> 4 CheckoutYear=2008/part-0.parquet    195.
#> 5 CheckoutYear=2009/part-0.parquet    214.
#> 6 CheckoutYear=2010/part-0.parquet    222.
#> # ℹ 12 more rows
```
…
原理也是一样的，据说会把写出来的dplyr函数翻译为Apache Arrow C++库的查询语句。虽然dbplyr也会展示数据，`showquery()`才展示查询步骤。但是感觉这个arrow更懒，直接也只展示元信息。除非也是用`collect()`强制执行生成tibble数据。

```R
query |> collect()
#> # A tibble: 58 × 3
#> # Groups:   CheckoutYear [5]
#>   CheckoutYear CheckoutMonth TotalCheckouts
#>          <int>         <int>          <int>
#> 1         2018             1         355101
#> 2         2018             2         309813
#> 3         2018             3         344487
#> 4         2018             4         330988
#> 5         2018             5         318049
#> 6         2018             6         341825
#> # ℹ 52 more rows
```
…
