…
proxy_url <- "http://127.0.0.1:1081"
proxy_config <- use_proxy(proxy_url)
url <- "https://web.archive.org/web/20220201012049/https://www.imdb.com/chart/top/"
response <- session(url = url, config = proxy_config)
html <- read_html(response)

table <- html %>%
  html_element("table") %>%
  html_table()
table
#> # A tibble: 250 × 5
#>   ``    `Rank & Title`                    `IMDb Rating` `Your Rating`   ``   
#>   <lgl> <chr>                                     <dbl> <chr>           <lgl>
#> 1 NA    "1.\n      The Shawshank Redempt…           9.2 "12345678910\n… NA   
#> 2 NA    "2.\n      The Godfather\n      …           9.1 "12345678910\n… NA   
#> 3 NA    "3.\n      The Godfather: Part I…           9   "12345678910\n… NA   
#> 4 NA    "4.\n      The Dark Knight\n    …           9   "12345678910\n… NA   
#> 5 NA    "5.\n      12 Angry Men\n       …           8.9 "12345678910\n… NA   
#> 6 NA    "6.\n      Schindler's List\n   …           8.9 "12345678910\n… NA   
#> # ℹ 244 more rows
```
…
    rating = `IMDb Rating`
  ) |> 
  mutate(
    rank_title_year = str_replace_all(rank_title_year, "\n +", " ")
  ) |> 
  separate_wider_regex(
    rank_title_year,
    patterns = c(
      rank = "\\d+", "\\. ",
      title = ".+", " +\\(",
      year = "\\d+", "\\)"
    )
  )
ratings
#> # A tibble: 250 × 4
#>   rank  title                    year  rating
#>   <chr> <chr>                    <chr>  <dbl>
#> 1 1     The Shawshank Redemption 1994     9.2
#> 2 2     The Godfather            1972     9.1
#> 3 3     The Godfather: Part II   1974     9  
#> 4 4     The Dark Knight          2008     9  
#> 5 5     12 Angry Men             1957     8.9
#> 6 6     Schindler's List         1993     8.9
#> # ℹ 244 more rows
```
…
